^C:\USERS\TOMMY\DOWNLOADS\CSCI580\GLOBAL_ILLUMINATION_PROJECT\CS580HW.RC
C:\USERS\TOMMY\DOWNLOADS\CSCI580\GLOBAL_ILLUMINATION_PROJECT\DEBUG\CS580HW.RES
^C:\USERS\TOMMY\DOWNLOADS\CSCI580\GLOBAL_ILLUMINATION_PROJECT\DEBUG\CS580HW5_MANIFEST.RC
C:\USERS\TOMMY\DOWNLOADS\CSCI580\GLOBAL_ILLUMINATION_PROJECT\DEBUG\CS580HW5.EXE.EMBED.MANIFEST.RES
