^C:\USERS\TOMMY\DOWNLOADS\CSCI580\HW5\CS580HW.RC
/D NDEBUG /D _VC80_UPGRADE=0x0600 /D _AFXDLL /l"0x0409" /nologo /fo".\Release\CS580HW.res" CS580HW.rc /D NDEBUG /D _VC80_UPGRADE=0x0600 /D _AFXDLL /l"0x0409" /nologo /fo".\Release\CS580HW.res" C:\USERS\TOMMY\DOWNLOADS\CSCI580\HW5\CS580HW.RC
^C:\USERS\TOMMY\DOWNLOADS\CSCI580\GLOBAL_ILLUMINATION_PROJECT\CS580HW.RC
/D NDEBUG /D _VC80_UPGRADE=0x0600 /D _AFXDLL /l"0x0409" /nologo /fo".\Release\CS580HW.res" CS580HW.rc /D NDEBUG /D _VC80_UPGRADE=0x0600 /D _AFXDLL /l"0x0409" /nologo /fo".\Release\CS580HW.res" C:\USERS\TOMMY\DOWNLOADS\CSCI580\GLOBAL_ILLUMINATION_PROJECT\CS580HW.RC
